━━━━━━━━━━━━━━━━━━━━━━━━━━━━━━━━━━━━━━━━━━━━━━━━━━━━━━━━━━━━━━━━━━━━━━━━━━━━━━━
 Language            Files        Lines         Code     Comments       Blanks
━━━━━━━━━━━━━━━━━━━━━━━━━━━━━━━━━━━━━━━━━━━━━━━━━━━━━━━━━━━━━━━━━━━━━━━━━━━━━━━
 JSON                    2         1058         1058            0            0
───────────────────────────────────────────────────────────────────────────────
 ./sbom.json                       1035         1035            0            0
 |heck_results/bomber.json           23           23            0            0
───────────────────────────────────────────────────────────────────────────────
 ReStructuredText        1           69           47            0           22
───────────────────────────────────────────────────────────────────────────────
 ./SECURITY.rst                      69           47            0           22
───────────────────────────────────────────────────────────────────────────────
 Markdown                6          908            0          645          263
───────────────────────────────────────────────────────────────────────────────
 |n/scorecard/scorecard.md           18            0           14            4
 ./README.md                        491            0          350          141
 ./CODE_OF_CONDUCT_DE.md            144            0          107           37
 ./CODE_OF_CONDUCT.md               134            0           97           37
 |ity_Disclosure_Policy.md           60            0           38           22
 ./SECURITY.md                       61            0           39           22
───────────────────────────────────────────────────────────────────────────────
 Plain Text              9          576            0          513           63
───────────────────────────────────────────────────────────────────────────────
 |documentation/robots.txt           75            0           66            9
 ./CODE_OF_CONDUCT.txt               97            0           92            5
 ./robots.txt                        75            0           66            9
 ./humans.txt                        39            0           12           27
 ./CODE_OF_CONDUCT_DE.txt           109            0          104            5
 ./content_long_list.txt              0            0            0            0
 ./content_summary.txt               14            0           14            0
 ./security.txt                      34            0           27            7
 ./structure.txt                    133            0          132            1
───────────────────────────────────────────────────────────────────────────────
 HTML                    1           35           22            0           13
 |- CSS                  1           49           49            0            0
 (Total)                             84           71            0           13
───────────────────────────────────────────────────────────────────────────────
 ./repo_check_results/bomber.html
 |- HTML                             35           22            0           13
 |- CSS                              49           49            0            0
 ./repo_check_results/bomber.html           35           22            0           13
━━━━━━━━━━━━━━━━━━━━━━━━━━━━━━━━━━━━━━━━━━━━━━━━━━━━━━━━━━━━━━━━━━━━━━━━━━━━━━━
 Total                  19         2695         1176         1158          361
━━━━━━━━━━━━━━━━━━━━━━━━━━━━━━━━━━━━━━━━━━━━━━━━━━━━━━━━━━━━━━━━━━━━━━━━━━━━━━━
